…
``` r
missing_bakers_df <- bakers_df |>
  anti_join(bakes_df, by = c("baker", "series"))
```

There are 26 - 1(row for column names) = 25 missing bakers that do not
have the same information in bakes_df

``` r
  anti_join(bakers_df, bakes_df)
```

    ## Joining with `by = join_by(baker, series)`

    ## # A tibble: 26 × 6
    ##    baker  baker_last_name series baker_age baker_occupation             hometown
    ##    <chr>  <chr>            <dbl>     <dbl> <chr>                        <chr>   
    ##  1 Alice  Fevronia            10        28 Geography teacher            Essex   
    ##  2 Amelia LeBruin             10        24 Fashion designer             Halifax 
    ##  3 Antony Amourdoux            9        30 Banker                       London  
    ##  4 Briony Williams             9        33 Full-time parent             Bristol 
    ##  5 Dan    Beasley-Harling      9        36 Full-time parent             London  
    ##  6 Dan    Chambers            10        32 Support worker               Rotherh…
    ##  7 David  Atherton            10        36 International health adviser Whitby  
    ##  8 Helena Garcia              10        40 Online project manager       Leeds   
    ##  9 Henry  Bird                10        20 Student                      Durham  
    ## 10 Imelda McCarron             9        33 Countryside recreation offi… County …
    ## # ℹ 16 more rows
…
